{
  "swagger": "2.0",
  "info": {
    "version": "0.0.1",
    "title": "My User Project CRUD",
    "description": "My User Project Application API",
    "license": {
      "name": "MIT",
      "url": "https://opensource.org/licenses/MIT"
    }
  },
  "host": "localhost:8000",
  "basePath": "/",
  "tags": [
    {
      "name": "Users",
      "description": "API for users in the system"
    }
  ],
  "schemes": ["http"],
  "consumes": ["application/json"],
  "produces": ["application/json"]
}
